ТП-Султанов-КА-Лабораторные(5-8)/Lab5/simulation/qsim/Lab_5.msim.vcd
$comment
	File created using the following command:
		vcd file Lab_5.msim.vcd -direction
$end
$date
	Wed May 11 02:42:05 2022
$end
$version
	ModelSim Version 2020.1
$end
$timescale
	1ps
$end

$scope module lab_5_vhd_vec_tst $end
$var wire 1 ! INO1 $end
$var wire 1 " INO2 $end
$var wire 1 # OO $end

$scope module i1 $end
$var wire 1 $ gnd $end
$var wire 1 % vcc $end
$var wire 1 & unknown $end
$var wire 1 ' devoe $end
$var wire 1 ( devclrn $end
$var wire 1 ) devpor $end
$var wire 1 * ww_devoe $end
$var wire 1 + ww_devclrn $end
$var wire 1 , ww_devpor $end
$var wire 1 - ww_INO1 $end
$var wire 1 . ww_INO2 $end
$var wire 1 / ww_OO $end
$var wire 1 0 \OO~output_o\ $end
$var wire 1 1 \INO2~input_o\ $end
$var wire 1 2 \INO1~input_o\ $end
$var wire 1 3 \OO~0_combout\ $end
$upscope $end
$upscope $end
$enddefinitions $end
#0
$dumpvars
0!
0"
1#
0$
1%
x&
1'
1(
1)
1*
1+
1,
0-
0.
1/
10
01
02
13
$end
#10000
1!
1"
1-
1.
11
12
#20000
0!
0"
0-
0.
01
02
#30000
1!
1"
1-
1.
11
12
#40000
0!
0"
0-
0.
01
02
#50000
1!
1"
1-
1.
11
12
#60000
0!
0"
0-
0.
01
02
#70000
1!
1"
1-
1.
11
12
#80000
0!
0"
0-
0.
01
02
#90000
1!
1"
1-
1.
11
12
#100000
0!
0"
0-
0.
01
02
#110000
1!
1"
1-
1.
11
12
#120000
0!
0"
0-
0.
01
02
#130000
1!
1"
1-
1.
11
12
#140000
0!
0"
0-
0.
01
02
#150000
1!
1"
1-
1.
11
12
#160000
0!
0"
0-
0.
01
02
#170000
1!
1"
1-
1.
11
12
#180000
0!
0"
0-
0.
01
02
#190000
1!
1"
1-
1.
11
12
#200000
0!
0"
0-
0.
01
02
#210000
1!
1"
1-
1.
11
12
#220000
0!
0"
0-
0.
01
02
#230000
1!
1"
1-
1.
11
12
#240000
0!
0"
0-
0.
01
02
#250000
1!
1"
1-
1.
11
12
#260000
0!
0"
0-
0.
01
02
#270000
1!
1"
1-
1.
11
12
#280000
0!
0"
0-
0.
01
02
#290000
1!
1"
1-
1.
11
12
#300000
0!
0"
0-
0.
01
02
#310000
1!
1"
1-
1.
11
12
#320000
0!
0"
0-
0.
01
02
#330000
1!
1"
1-
1.
11
12
#340000
0!
0"
0-
0.
01
02
#350000
1!
1"
1-
1.
11
12
#360000
0!
0"
0-
0.
01
02
#370000
1!
1"
1-
1.
11
12
#380000
0!
0"
0-
0.
01
02
#390000
1!
1"
1-
1.
11
12
#400000
0!
0"
0-
0.
01
02
#410000
1!
1"
1-
1.
11
12
#420000
0!
0"
0-
0.
01
02
#430000
1!
1"
1-
1.
11
12
#440000
0!
0"
0-
0.
01
02
#450000
1!
1"
1-
1.
11
12
#460000
0!
0"
0-
0.
01
02
#470000
1!
1"
1-
1.
11
12
#480000
0!
0"
0-
0.
01
02
#490000
1!
1"
1-
1.
11
12
#500000
0!
0"
0-
0.
01
02
#510000
1!
1"
1-
1.
11
12
#520000
0!
0"
0-
0.
01
02
#530000
1!
1"
1-
1.
11
12
#540000
0!
0"
0-
0.
01
02
#550000
1!
1"
1-
1.
11
12
#560000
0!
0"
0-
0.
01
02
#570000
1!
1"
1-
1.
11
12
#580000
0!
0"
0-
0.
01
02
#590000
1!
1"
1-
1.
11
12
#600000
0!
0"
0-
0.
01
02
#610000
1!
1"
1-
1.
11
12
#620000
0!
0"
0-
0.
01
02
#630000
1!
1"
1-
1.
11
12
#640000
0!
0"
0-
0.
01
02
#650000
1!
1"
1-
1.
11
12
#660000
0!
0"
0-
0.
01
02
#670000
1!
1"
1-
1.
11
12
#680000
0!
0"
0-
0.
01
02
#690000
1!
1"
1-
1.
11
12
#700000
0!
0"
0-
0.
01
02
#710000
1!
1"
1-
1.
11
12
#720000
0!
0"
0-
0.
01
02
#730000
1!
1"
1-
1.
11
12
#740000
0!
0"
0-
0.
01
02
#750000
1!
1"
1-
1.
11
12
#760000
0!
0"
0-
0.
01
02
#770000
1!
1"
1-
1.
11
12
#780000
0!
0"
0-
0.
01
02
#790000
1!
1"
1-
1.
11
12
#800000
0!
0"
0-
0.
01
02
#810000
1!
1"
1-
1.
11
12
#820000
0!
0"
0-
0.
01
02
#830000
1!
1"
1-
1.
11
12
#840000
0!
0"
0-
0.
01
02
#850000
1!
1"
1-
1.
11
12
#860000
0!
0"
0-
0.
01
02
#870000
1!
1"
1-
1.
11
12
#880000
0!
0"
0-
0.
01
02
#890000
1!
1"
1-
1.
11
12
#900000
0!
0"
0-
0.
01
02
#910000
1!
1"
1-
1.
11
12
#920000
0!
0"
0-
0.
01
02
#930000
1!
1"
1-
1.
11
12
#940000
0!
0"
0-
0.
01
02
#950000
1!
1"
1-
1.
11
12
#960000
0!
0"
0-
0.
01
02
#970000
1!
1"
1-
1.
11
12
#980000
0!
0"
0-
0.
01
02
#990000
1!
1"
1-
1.
11
12
