ТП-Султанов-КА-Лабораторные(1-4)/Lab2/simulation/qsim/Lab_2.msim.vcd
$comment
	File created using the following command:
		vcd file Lab_2.msim.vcd -direction
$end
$date
	Wed May 11 01:07:10 2022
$end
$version
	ModelSim Version 2020.1
$end
$timescale
	1ps
$end

$scope module lab_2_vhd_vec_tst $end
$var wire 1 ! C $end
$var wire 1 " Q0 $end
$var wire 1 # Q1 $end
$var wire 1 $ Q2 $end
$var wire 1 % Q3 $end

$scope module i1 $end
$var wire 1 & gnd $end
$var wire 1 ' vcc $end
$var wire 1 ( unknown $end
$var wire 1 ) devoe $end
$var wire 1 * devclrn $end
$var wire 1 + devpor $end
$var wire 1 , ww_devoe $end
$var wire 1 - ww_devclrn $end
$var wire 1 . ww_devpor $end
$var wire 1 / ww_C $end
$var wire 1 0 ww_Q0 $end
$var wire 1 1 ww_Q2 $end
$var wire 1 2 ww_Q1 $end
$var wire 1 3 ww_Q3 $end
$var wire 1 4 \Q0~output_o\ $end
$var wire 1 5 \Q2~output_o\ $end
$var wire 1 6 \Q1~output_o\ $end
$var wire 1 7 \Q3~output_o\ $end
$var wire 1 8 \C~input_o\ $end
$var wire 1 9 \DFF_inst~0_combout\ $end
$var wire 1 : \DFF_inst~feeder_combout\ $end
$var wire 1 ; \DFF_inst~q\ $end
$var wire 1 < \DFF_inst2~0_combout\ $end
$var wire 1 = \DFF_inst2~feeder_combout\ $end
$var wire 1 > \DFF_inst2~q\ $end
$var wire 1 ? \DFF_inst4~0_combout\ $end
$var wire 1 @ \DFF_inst4~feeder_combout\ $end
$var wire 1 A \DFF_inst4~q\ $end
$var wire 1 B \DFF_inst6~0_combout\ $end
$var wire 1 C \DFF_inst6~q\ $end
$var wire 1 D \ALT_INV_DFF_inst2~q\ $end
$var wire 1 E \ALT_INV_DFF_inst4~q\ $end
$var wire 1 F \ALT_INV_DFF_inst~q\ $end
$upscope $end
$upscope $end
$enddefinitions $end
#0
$dumpvars
0!
0"
0#
0$
0%
0&
1'
x(
1)
1*
1+
1,
1-
1.
0/
00
01
02
03
04
05
06
07
08
19
1:
0;
1<
1=
0>
1?
1@
0A
1B
0C
1D
1E
1F
$end
#10000
1!
1/
18
1;
0F
09
0:
14
10
1"
#20000
0!
0/
08
#30000
1!
1/
18
0;
1F
19
1>
1:
0D
04
0<
00
0=
0"
16
12
1#
#40000
0!
0/
08
#50000
1!
1/
18
1;
0F
09
0:
14
10
1"
#60000
0!
0/
08
#70000
1!
1/
18
0;
1F
19
0>
1:
1D
04
1<
1A
00
1=
0E
0"
06
0?
02
0@
0#
15
11
1$
#80000
0!
0/
08
#90000
1!
1/
18
1;
0F
09
0:
14
10
1"
#100000
0!
0/
08
#110000
1!
1/
18
0;
1F
19
1>
1:
0D
04
0<
00
0=
0"
16
12
1#
#120000
0!
0/
08
#130000
1!
1/
18
1;
0F
09
0:
14
10
1"
#140000
0!
0/
08
#150000
1!
1/
18
0;
1F
19
0>
1:
1D
04
1<
0A
00
1=
1E
0"
06
1?
1C
02
1@
0#
05
0B
01
0$
17
13
1%
#160000
0!
0/
08
#170000
1!
1/
18
1;
0F
09
0:
14
10
1"
#180000
0!
0/
08
#190000
1!
1/
18
0;
1F
19
1>
1:
0D
04
0<
00
0=
0"
16
12
1#
#200000
0!
0/
08
#210000
1!
1/
18
1;
0F
09
0:
14
10
1"
#220000
0!
0/
08
#230000
1!
1/
18
0;
1F
19
0>
1:
1D
04
1<
1A
00
1=
0E
0"
06
0?
02
0@
0#
15
11
1$
#240000
0!
0/
08
#250000
1!
1/
18
1;
0F
09
0:
14
10
1"
#260000
0!
0/
08
#270000
1!
1/
18
0;
1F
19
1>
1:
0D
04
0<
00
0=
0"
16
12
1#
#280000
0!
0/
08
#290000
1!
1/
18
1;
0F
09
0:
14
10
1"
#300000
0!
0/
08
#310000
1!
1/
18
0;
1F
19
0>
1:
1D
04
1<
0A
00
1=
1E
0"
06
1?
0C
02
1@
0#
05
1B
01
0$
07
03
0%
#320000
0!
0/
08
#330000
1!
1/
18
1;
0F
09
0:
14
10
1"
#340000
0!
0/
08
#350000
1!
1/
18
0;
1F
19
1>
1:
0D
04
0<
00
0=
0"
16
12
1#
#360000
0!
0/
08
#370000
1!
1/
18
1;
0F
09
0:
14
10
1"
#380000
0!
0/
08
#390000
1!
1/
18
0;
1F
19
0>
1:
1D
04
1<
1A
00
1=
0E
0"
06
0?
02
0@
0#
15
11
1$
#400000
0!
0/
08
#410000
1!
1/
18
1;
0F
09
0:
14
10
1"
#420000
0!
0/
08
#430000
1!
1/
18
0;
1F
19
1>
1:
0D
04
0<
00
0=
0"
16
12
1#
#440000
0!
0/
08
#450000
1!
1/
18
1;
0F
09
0:
14
10
1"
#460000
0!
0/
08
#470000
1!
1/
18
0;
1F
19
0>
1:
1D
04
1<
0A
00
1=
1E
0"
06
1?
1C
02
1@
0#
05
0B
01
0$
17
13
1%
#480000
0!
0/
08
#490000
1!
1/
18
1;
0F
09
0:
14
10
1"
#500000
0!
0/
08
#510000
1!
1/
18
0;
1F
19
1>
1:
0D
04
0<
00
0=
0"
16
12
1#
#520000
0!
0/
08
#530000
1!
1/
18
1;
0F
09
0:
14
10
1"
#540000
0!
0/
08
#550000
1!
1/
18
0;
1F
19
0>
1:
1D
04
1<
1A
00
1=
0E
0"
06
0?
02
0@
0#
15
11
1$
#560000
0!
0/
08
#570000
1!
1/
18
1;
0F
09
0:
14
10
1"
#580000
0!
0/
08
#590000
1!
1/
18
0;
1F
19
1>
1:
0D
04
0<
00
0=
0"
16
12
1#
#600000
0!
0/
08
#610000
1!
1/
18
1;
0F
09
0:
14
10
1"
#620000
0!
0/
08
#630000
1!
1/
18
0;
1F
19
0>
1:
1D
04
1<
0A
00
1=
1E
0"
06
1?
0C
02
1@
0#
05
1B
01
0$
07
03
0%
#640000
0!
0/
08
#650000
1!
1/
18
1;
0F
09
0:
14
10
1"
#660000
0!
0/
08
#670000
1!
1/
18
0;
1F
19
1>
1:
0D
04
0<
00
0=
0"
16
12
1#
#680000
0!
0/
08
#690000
1!
1/
18
1;
0F
09
0:
14
10
1"
#700000
0!
0/
08
#710000
1!
1/
18
0;
1F
19
0>
1:
1D
04
1<
1A
00
1=
0E
0"
06
0?
02
0@
0#
15
11
1$
#720000
0!
0/
08
#730000
1!
1/
18
1;
0F
09
0:
14
10
1"
#740000
0!
0/
08
#750000
1!
1/
18
0;
1F
19
1>
1:
0D
04
0<
00
0=
0"
16
12
1#
#760000
0!
0/
08
#770000
1!
1/
18
1;
0F
09
0:
14
10
1"
#780000
0!
0/
08
#790000
1!
1/
18
0;
1F
19
0>
1:
1D
04
1<
0A
00
1=
1E
0"
06
1?
1C
02
1@
0#
05
0B
01
0$
17
13
1%
#800000
0!
0/
08
#810000
1!
1/
18
1;
0F
09
0:
14
10
1"
#820000
0!
0/
08
#830000
1!
1/
18
0;
1F
19
1>
1:
0D
04
0<
00
0=
0"
16
12
1#
#840000
0!
0/
08
#850000
1!
1/
18
1;
0F
09
0:
14
10
1"
#860000
0!
0/
08
#870000
1!
1/
18
0;
1F
19
0>
1:
1D
04
1<
1A
00
1=
0E
0"
06
0?
02
0@
0#
15
11
1$
#880000
0!
0/
08
#890000
1!
1/
18
1;
0F
09
0:
14
10
1"
#900000
0!
0/
08
#910000
1!
1/
18
0;
1F
19
1>
1:
0D
04
0<
00
0=
0"
16
12
1#
#920000
0!
0/
08
#930000
1!
1/
18
1;
0F
09
0:
14
10
1"
#940000
0!
0/
08
#950000
1!
1/
18
0;
1F
19
0>
1:
1D
04
1<
0A
00
1=
1E
0"
06
1?
0C
02
1@
0#
05
1B
01
0$
07
03
0%
#960000
0!
0/
08
#970000
1!
1/
18
1;
0F
09
0:
14
10
1"
#980000
0!
0/
08
#990000
1!
1/
18
0;
1F
19
1>
1:
0D
04
0<
00
0=
0"
16
12
1#
