ТП-Султанов-КА-Лабораторные(1-4)/Lab3/simulation/qsim/Lab_3.msim.vcd
$comment
	File created using the following command:
		vcd file Lab_3.msim.vcd -direction
$end
$date
	Wed May 11 01:31:03 2022
$end
$version
	ModelSim Version 2020.1
$end
$timescale
	1ps
$end

$scope module lab_3_vhd_vec_tst $end
$var wire 1 ! C $end
$var wire 1 " Q0 $end
$var wire 1 # Q1 $end
$var wire 1 $ Q2 $end
$var wire 1 % Q3 $end

$scope module i1 $end
$var wire 1 & gnd $end
$var wire 1 ' vcc $end
$var wire 1 ( unknown $end
$var wire 1 ) devoe $end
$var wire 1 * devclrn $end
$var wire 1 + devpor $end
$var wire 1 , ww_devoe $end
$var wire 1 - ww_devclrn $end
$var wire 1 . ww_devpor $end
$var wire 1 / ww_C $end
$var wire 1 0 ww_Q0 $end
$var wire 1 1 ww_Q1 $end
$var wire 1 2 ww_Q2 $end
$var wire 1 3 ww_Q3 $end
$var wire 1 4 \Q0~output_o\ $end
$var wire 1 5 \Q1~output_o\ $end
$var wire 1 6 \Q2~output_o\ $end
$var wire 1 7 \Q3~output_o\ $end
$var wire 1 8 \C~input_o\ $end
$var wire 1 9 \synthesized_var_for_JKFF_inst~0_combout\ $end
$var wire 1 : \synthesized_var_for_JKFF_inst~feeder_combout\ $end
$var wire 1 ; \synthesized_var_for_JKFF_inst~q\ $end
$var wire 1 < \synthesized_var_for_JKFF_inst1~0_combout\ $end
$var wire 1 = \synthesized_var_for_JKFF_inst1~feeder_combout\ $end
$var wire 1 > \synthesized_var_for_JKFF_inst1~q\ $end
$var wire 1 ? \synthesized_var_for_JKFF_inst2~0_combout\ $end
$var wire 1 @ \synthesized_var_for_JKFF_inst2~feeder_combout\ $end
$var wire 1 A \synthesized_var_for_JKFF_inst2~q\ $end
$var wire 1 B \synthesized_var_for_Q3~0_combout\ $end
$var wire 1 C \synthesized_var_for_Q3~q\ $end
$var wire 1 D \ALT_INV_synthesized_var_for_JKFF_inst2~q\ $end
$var wire 1 E \ALT_INV_synthesized_var_for_JKFF_inst1~q\ $end
$var wire 1 F \ALT_INV_synthesized_var_for_JKFF_inst~q\ $end
$upscope $end
$upscope $end
$enddefinitions $end
#0
$dumpvars
0!
0"
0#
0$
0%
0&
1'
x(
1)
1*
1+
1,
1-
1.
0/
00
01
02
03
04
05
06
07
08
19
1:
0;
1<
1=
0>
1?
1@
0A
1B
0C
1D
1E
1F
$end
#20000
1!
1/
18
1;
0F
09
0:
14
10
1"
#40000
0!
0/
08
#60000
1!
1/
18
0;
1F
19
1>
1:
0E
04
0<
00
0=
0"
15
11
1#
#80000
0!
0/
08
#100000
1!
1/
18
1;
0F
09
0:
14
10
1"
#120000
0!
0/
08
#140000
1!
1/
18
0;
1F
19
0>
1:
1E
04
1<
1A
00
1=
0D
0"
05
0?
01
0@
0#
16
12
1$
#160000
0!
0/
08
#180000
1!
1/
18
1;
0F
09
0:
14
10
1"
#200000
0!
0/
08
#220000
1!
1/
18
0;
1F
19
1>
1:
0E
04
0<
00
0=
0"
15
11
1#
#240000
0!
0/
08
#260000
1!
1/
18
1;
0F
09
0:
14
10
1"
#280000
0!
0/
08
#300000
1!
1/
18
0;
1F
19
0>
1:
1E
04
1<
0A
00
1=
1D
0"
05
1?
1C
01
1@
0#
06
0B
02
0$
17
13
1%
#320000
0!
0/
08
#340000
1!
1/
18
1;
0F
09
0:
14
10
1"
#360000
0!
0/
08
#380000
1!
1/
18
0;
1F
19
1>
1:
0E
04
0<
00
0=
0"
15
11
1#
#400000
0!
0/
08
#420000
1!
1/
18
1;
0F
09
0:
14
10
1"
#440000
0!
0/
08
#460000
1!
1/
18
0;
1F
19
0>
1:
1E
04
1<
1A
00
1=
0D
0"
05
0?
01
0@
0#
16
12
1$
#480000
0!
0/
08
#500000
1!
1/
18
1;
0F
09
0:
14
10
1"
#520000
0!
0/
08
#540000
1!
1/
18
0;
1F
19
1>
1:
0E
04
0<
00
0=
0"
15
11
1#
#560000
0!
0/
08
#580000
1!
1/
18
1;
0F
09
0:
14
10
1"
#600000
0!
0/
08
#620000
1!
1/
18
0;
1F
19
0>
1:
1E
04
1<
0A
00
1=
1D
0"
05
1?
0C
01
1@
0#
06
1B
02
0$
07
03
0%
#640000
0!
0/
08
#660000
1!
1/
18
1;
0F
09
0:
14
10
1"
#680000
0!
0/
08
#700000
1!
1/
18
0;
1F
19
1>
1:
0E
04
0<
00
0=
0"
15
11
1#
#720000
0!
0/
08
#740000
1!
1/
18
1;
0F
09
0:
14
10
1"
#760000
0!
0/
08
#780000
1!
1/
18
0;
1F
19
0>
1:
1E
04
1<
1A
00
1=
0D
0"
05
0?
01
0@
0#
16
12
1$
#800000
0!
0/
08
#820000
1!
1/
18
1;
0F
09
0:
14
10
1"
#840000
0!
0/
08
#860000
1!
1/
18
0;
1F
19
1>
1:
0E
04
0<
00
0=
0"
15
11
1#
#880000
0!
0/
08
#900000
1!
1/
18
1;
0F
09
0:
14
10
1"
#920000
0!
0/
08
#940000
1!
1/
18
0;
1F
19
0>
1:
1E
04
1<
0A
00
1=
1D
0"
05
1?
1C
01
1@
0#
06
0B
02
0$
17
13
1%
#960000
0!
0/
08
#980000
1!
1/
18
1;
0F
09
0:
14
10
1"
