ТП-Султанов-КА-Лабораторные(5-8)/Lab7/simulation/qsim/Lab_7.msim.vcd
$comment
	File created using the following command:
		vcd file Lab_7.msim.vcd -direction
$end
$date
	Wed May 11 04:01:16 2022
$end
$version
	ModelSim Version 2020.1
$end
$timescale
	1ps
$end

$scope module lab_7_vhd_vec_tst $end
$var wire 1 ! C $end
$var wire 1 " Q $end

$scope module i1 $end
$var wire 1 # gnd $end
$var wire 1 $ vcc $end
$var wire 1 % unknown $end
$var wire 1 & devoe $end
$var wire 1 ' devclrn $end
$var wire 1 ( devpor $end
$var wire 1 ) ww_devoe $end
$var wire 1 * ww_devclrn $end
$var wire 1 + ww_devpor $end
$var wire 1 , ww_C $end
$var wire 1 - ww_Q $end
$var wire 1 . \Q~output_o\ $end
$var wire 1 / \C~input_o\ $end
$var wire 1 0 \DFF_inst~0_combout\ $end
$var wire 1 1 \DFF_inst~q\ $end
$var wire 1 2 \ALT_INV_C~input_o\ $end
$upscope $end
$upscope $end
$enddefinitions $end
#0
$dumpvars
0!
0"
0#
1$
x%
1&
1'
1(
1)
1*
1+
0,
0-
0.
0/
10
01
12
$end
#20000
1!
1,
1/
02
#40000
0!
0,
0/
12
11
00
1.
1-
1"
#60000
1!
1,
1/
02
#80000
0!
0,
0/
12
01
10
0.
0-
0"
#100000
1!
1,
1/
02
#120000
0!
0,
0/
12
11
00
1.
1-
1"
#140000
1!
1,
1/
02
#160000
0!
0,
0/
12
01
10
0.
0-
0"
#180000
1!
1,
1/
02
#200000
0!
0,
0/
12
11
00
1.
1-
1"
#220000
1!
1,
1/
02
#240000
0!
0,
0/
12
01
10
0.
0-
0"
#260000
1!
1,
1/
02
#280000
0!
0,
0/
12
11
00
1.
1-
1"
#300000
1!
1,
1/
02
#320000
0!
0,
0/
12
01
10
0.
0-
0"
#340000
1!
1,
1/
02
#360000
0!
0,
0/
12
11
00
1.
1-
1"
#380000
1!
1,
1/
02
#400000
0!
0,
0/
12
01
10
0.
0-
0"
#420000
1!
1,
1/
02
#440000
0!
0,
0/
12
11
00
1.
1-
1"
#460000
1!
1,
1/
02
#480000
0!
0,
0/
12
01
10
0.
0-
0"
#500000
1!
1,
1/
02
#520000
0!
0,
0/
12
11
00
1.
1-
1"
#540000
1!
1,
1/
02
#560000
0!
0,
0/
12
01
10
0.
0-
0"
#580000
1!
1,
1/
02
#600000
0!
0,
0/
12
11
00
1.
1-
1"
#620000
1!
1,
1/
02
#640000
0!
0,
0/
12
01
10
0.
0-
0"
#660000
1!
1,
1/
02
#680000
0!
0,
0/
12
11
00
1.
1-
1"
#700000
1!
1,
1/
02
#720000
0!
0,
0/
12
01
10
0.
0-
0"
#740000
1!
1,
1/
02
#760000
0!
0,
0/
12
11
00
1.
1-
1"
#780000
1!
1,
1/
02
#800000
0!
0,
0/
12
01
10
0.
0-
0"
#820000
1!
1,
1/
02
#840000
0!
0,
0/
12
11
00
1.
1-
1"
#860000
1!
1,
1/
02
#880000
0!
0,
0/
12
01
10
0.
0-
0"
#900000
1!
1,
1/
02
#920000
0!
0,
0/
12
11
00
1.
1-
1"
#940000
1!
1,
1/
02
#960000
0!
0,
0/
12
01
10
0.
0-
0"
#980000
1!
1,
1/
02
