ТП-Султанов-КА-Лабораторные(5-8)/Lab8/simulation/qsim/Lab_8.msim.vcd
$comment
	File created using the following command:
		vcd file Lab_8.msim.vcd -direction
$end
$date
	Wed May 11 04:10:27 2022
$end
$version
	ModelSim Version 2020.1
$end
$timescale
	1ps
$end

$scope module lab_8_vhd_vec_tst $end
$var wire 1 ! F $end
$var wire 1 " X1 $end
$var wire 1 # X2 $end
$var wire 1 $ X3 $end
$var wire 1 % X4 $end

$scope module i1 $end
$var wire 1 & gnd $end
$var wire 1 ' vcc $end
$var wire 1 ( unknown $end
$var wire 1 ) devoe $end
$var wire 1 * devclrn $end
$var wire 1 + devpor $end
$var wire 1 , ww_devoe $end
$var wire 1 - ww_devclrn $end
$var wire 1 . ww_devpor $end
$var wire 1 / ww_X1 $end
$var wire 1 0 ww_X2 $end
$var wire 1 1 ww_X3 $end
$var wire 1 2 ww_X4 $end
$var wire 1 3 ww_F $end
$var wire 1 4 \F~output_o\ $end
$var wire 1 5 \X2~input_o\ $end
$var wire 1 6 \X1~input_o\ $end
$var wire 1 7 \X3~input_o\ $end
$var wire 1 8 \X4~input_o\ $end
$var wire 1 9 \F~0_combout\ $end
$var wire 1 : \ALT_INV_F~0_combout\ $end
$upscope $end
$upscope $end
$enddefinitions $end
#0
$dumpvars
1!
0"
0#
0$
0%
0&
1'
x(
1)
1*
1+
1,
1-
1.
0/
00
01
02
13
14
05
06
07
08
09
1:
$end
#20000
1%
12
18
19
0:
04
03
0!
#40000
0%
1$
02
11
17
08
#60000
1%
12
18
09
1:
14
13
1!
#80000
0%
0$
1#
02
01
10
15
07
08
19
0:
04
03
0!
#100000
1%
12
18
09
1:
14
13
1!
#120000
0%
1$
02
11
17
08
#140000
1%
12
18
19
0:
04
03
0!
#160000
0%
0$
0#
1"
02
01
00
1/
16
05
07
08
#180000
1%
12
18
09
1:
14
13
1!
#200000
0%
1$
02
11
17
08
#220000
1%
12
18
19
0:
04
03
0!
#240000
0%
0$
1#
02
01
10
15
07
08
09
1:
14
13
1!
#260000
1%
12
18
19
0:
04
03
0!
#280000
0%
1$
02
11
17
08
#300000
1%
12
18
09
1:
14
13
1!
#320000
0%
0$
0#
0"
02
01
00
0/
06
05
07
08
#340000
1%
12
18
19
0:
04
03
0!
#360000
0%
1$
02
11
17
08
#380000
1%
12
18
09
1:
14
13
1!
#400000
0%
0$
1#
02
01
10
15
07
08
19
0:
04
03
0!
#420000
1%
12
18
09
1:
14
13
1!
#440000
0%
1$
02
11
17
08
#460000
1%
12
18
19
0:
04
03
0!
#480000
0%
0$
0#
1"
02
01
00
1/
16
05
07
08
#500000
1%
12
18
09
1:
14
13
1!
#520000
0%
1$
02
11
17
08
#540000
1%
12
18
19
0:
04
03
0!
#560000
0%
0$
1#
02
01
10
15
07
08
09
1:
14
13
1!
#580000
1%
12
18
19
0:
04
03
0!
#600000
0%
1$
02
11
17
08
#620000
1%
12
18
09
1:
14
13
1!
#640000
0%
0$
0#
0"
02
01
00
0/
06
05
07
08
#660000
1%
12
18
19
0:
04
03
0!
#680000
0%
1$
02
11
17
08
#700000
1%
12
18
09
1:
14
13
1!
#720000
0%
0$
1#
02
01
10
15
07
08
19
0:
04
03
0!
#740000
1%
12
18
09
1:
14
13
1!
#760000
0%
1$
02
11
17
08
#780000
1%
12
18
19
0:
04
03
0!
#800000
0%
0$
0#
1"
02
01
00
1/
16
05
07
08
#820000
1%
12
18
09
1:
14
13
1!
#840000
0%
1$
02
11
17
08
#860000
1%
12
18
19
0:
04
03
0!
#880000
0%
0$
1#
02
01
10
15
07
08
09
1:
14
13
1!
#900000
1%
12
18
19
0:
04
03
0!
#920000
0%
1$
02
11
17
08
#940000
1%
12
18
09
1:
14
13
1!
#960000
0%
0$
0#
0"
02
01
00
0/
06
05
07
08
#980000
1%
12
18
19
0:
04
03
0!
